transcript
# vsim -voptargs="+acc" -c RISC_V_tb -do "run -all; exit" 
# Start time: 09:05:42 on Apr 07,2023
# ** Note: (vsim-3813) Design is being optimized due to module recompilation...
# //  ModelSim SE-64 10.6d Feb 24 2018
# //
# //  Copyright 1991-2018 Mentor Graphics Corporation
# //  All Rights Reserved.
# //
# //  ModelSim SE-64 and its associated documentation contain trade
# //  secrets and commercial or financial information that are the property of
# //  Mentor Graphics Corporation and are privileged, confidential,
# //  and exempt from disclosure under the Freedom of Information Act,
# //  5 U.S.C. Section 552. Furthermore, this information
# //  is prohibited from disclosure under the Trade Secrets Act,
# //  18 U.S.C. Section 1905.
# //
# Loading sv_std.std
# Loading work.RISC_V_tb(fast)
# Loading work.RISC_V(fast)
# Loading work.Controller(fast)
# Loading work.LS_controller(fast)
# Loading work.data_path(fast)
# Loading work.Regfile(fast)
# Loading work.ALU(fast)
# Loading work.mux11x1(fast)
# Loading work.Instrmem(fast)
# Loading work.data_mem(fast)
# Loading work.Branch_block(fast)
# run -all
# PC=         x y=        22 x=         2
# PC=         0 y=        22 x=       100
# PC=         4 y=         0 x=       100
# PC=         8 y=         0 x=       100
# PC=        12 y=         0 x=       100
# PC=        16 y=       100 x=       100
# PC=        20 y=       100 x=        90
# PC=        24 y=       100 x=        90
# PC=         8 y=       100 x=        90
# PC=        12 y=       100 x=        90
# PC=        16 y=       190 x=        90
# PC=        20 y=       190 x=        80
# PC=        24 y=       190 x=        80
# PC=         8 y=       190 x=        80
# PC=        12 y=       190 x=        80
# PC=        16 y=       270 x=        80
# PC=        20 y=       270 x=        70
# PC=        24 y=       270 x=        70
# PC=         8 y=       270 x=        70
# PC=        12 y=       270 x=        70
# PC=        16 y=       340 x=        70
# PC=        20 y=       340 x=        60
# PC=        24 y=       340 x=        60
# PC=         8 y=       340 x=        60
# PC=        12 y=       340 x=        60
# PC=        16 y=       400 x=        60
# PC=        20 y=       400 x=        50
# PC=        24 y=       400 x=        50
# PC=         8 y=       400 x=        50
# PC=        12 y=       400 x=        50
# PC=        16 y=       450 x=        50
# PC=        20 y=       450 x=        40
# PC=        24 y=       450 x=        40
# PC=         8 y=       450 x=        40
# PC=        12 y=       450 x=        40
# PC=        16 y=       490 x=        40
# PC=        20 y=       490 x=        30
# PC=        24 y=       490 x=        30
# PC=         8 y=       490 x=        30
# PC=        12 y=       490 x=        30
# PC=        16 y=       520 x=        30
# PC=        20 y=       520 x=        20
# PC=        24 y=       520 x=        20
# PC=         8 y=       520 x=        20
# PC=        12 y=       520 x=        20
# PC=        16 y=       540 x=        20
# PC=        20 y=       540 x=        10
# PC=        24 y=       540 x=        10
# PC=         8 y=       540 x=        10
# PC=        12 y=       540 x=        10
# PC=        16 y=       550 x=        10
# PC=        20 y=       550 x=         0
# PC=        24 y=       550 x=         0
# PC=         8 y=       550 x=         0
# PC=        12 y=       550 x=         0
# PC=        16 y=       550 x=         0
# PC=        20 y=       550 x=4294967286
# PC=        24 y=       550 x=4294967286
# PC=         8 y=       550 x=4294967286
# PC=        12 y=       550 x=4294967286
# PC=        16 y=       540 x=4294967286
# PC=        20 y=       540 x=4294967276
# PC=        24 y=       540 x=4294967276
# PC=         8 y=       540 x=4294967276
# PC=        12 y=       540 x=4294967276
# PC=        16 y=       520 x=4294967276
# PC=        20 y=       520 x=4294967266
# PC=        24 y=       520 x=4294967266
# PC=         8 y=       520 x=4294967266
# PC=        12 y=       520 x=4294967266
# PC=        16 y=       490 x=4294967266
# PC=        20 y=       490 x=4294967256
# PC=        24 y=       490 x=4294967256
# PC=         8 y=       490 x=4294967256
# PC=        12 y=       490 x=4294967256
# PC=        16 y=       450 x=4294967256
# PC=        20 y=       450 x=4294967246
# PC=        24 y=       450 x=4294967246
# PC=         8 y=       450 x=4294967246
# PC=        12 y=       450 x=4294967246
# PC=        16 y=       400 x=4294967246
# PC=        20 y=       400 x=4294967236
# PC=        24 y=       400 x=4294967236
# PC=         8 y=       400 x=4294967236
# PC=        12 y=       400 x=4294967236
# PC=        16 y=       340 x=4294967236
# PC=        20 y=       340 x=4294967226
# PC=        24 y=       340 x=4294967226
# PC=         8 y=       340 x=4294967226
# PC=        12 y=       340 x=4294967226
# PC=        16 y=       270 x=4294967226
# PC=        20 y=       270 x=4294967216
# PC=        24 y=       270 x=4294967216
# PC=         8 y=       270 x=4294967216
# PC=        12 y=       270 x=4294967216
# PC=        16 y=       190 x=4294967216
# PC=        20 y=       190 x=4294967206
# PC=        24 y=       190 x=4294967206
# PC=         8 y=       190 x=4294967206
# PC=        12 y=       190 x=4294967206
# PC=        16 y=       100 x=4294967206
# PC=        20 y=       100 x=4294967196
# PC=        24 y=       100 x=4294967196
# PC=         8 y=       100 x=4294967196
# PC=        12 y=       100 x=4294967196
# PC=        16 y=         0 x=4294967196
# PC=        20 y=         0 x=4294967186
# PC=        24 y=         0 x=4294967186
# PC=         8 y=         0 x=4294967186
# PC=        12 y=         0 x=4294967186
# PC=        16 y=4294967186 x=4294967186
# PC=        20 y=4294967186 x=4294967176
# PC=        24 y=4294967186 x=4294967176
# PC=         8 y=4294967186 x=4294967176
# PC=        12 y=4294967186 x=4294967176
# PC=        16 y=4294967066 x=4294967176
# PC=        20 y=4294967066 x=4294967166
# PC=        24 y=4294967066 x=4294967166
# PC=         8 y=4294967066 x=4294967166
# PC=        12 y=4294967066 x=4294967166
# PC=        16 y=4294966936 x=4294967166
# PC=        20 y=4294966936 x=4294967156
# PC=        24 y=4294966936 x=4294967156
# PC=         8 y=4294966936 x=4294967156
# PC=        12 y=4294966936 x=4294967156
# PC=        16 y=4294966796 x=4294967156
# PC=        20 y=4294966796 x=4294967146
# PC=        24 y=4294966796 x=4294967146
# PC=         8 y=4294966796 x=4294967146
# PC=        12 y=4294966796 x=4294967146
# PC=        16 y=4294966646 x=4294967146
# PC=        20 y=4294966646 x=4294967136
# PC=        24 y=4294966646 x=4294967136
# PC=         8 y=4294966646 x=4294967136
# PC=        12 y=4294966646 x=4294967136
# PC=        16 y=4294966486 x=4294967136
# PC=        20 y=4294966486 x=4294967126
# PC=        24 y=4294966486 x=4294967126
# PC=         8 y=4294966486 x=4294967126
# PC=        12 y=4294966486 x=4294967126
# PC=        16 y=4294966316 x=4294967126
# PC=        20 y=4294966316 x=4294967116
# PC=        24 y=4294966316 x=4294967116
# PC=         8 y=4294966316 x=4294967116
# PC=        12 y=4294966316 x=4294967116
# PC=        16 y=4294966136 x=4294967116
# PC=        20 y=4294966136 x=4294967106
# PC=        24 y=4294966136 x=4294967106
# PC=         8 y=4294966136 x=4294967106
# PC=        12 y=4294966136 x=4294967106
# PC=        16 y=4294965946 x=4294967106
# PC=        20 y=4294965946 x=4294967096
# PC=        24 y=4294965946 x=4294967096
# PC=         8 y=4294965946 x=4294967096
# PC=        12 y=4294965946 x=4294967096
# PC=        16 y=4294965746 x=4294967096
# PC=        20 y=4294965746 x=4294967086
# PC=        24 y=4294965746 x=4294967086
# PC=         8 y=4294965746 x=4294967086
# PC=        12 y=4294965746 x=4294967086
# PC=        16 y=4294965536 x=4294967086
# PC=        20 y=4294965536 x=4294967076
# PC=        24 y=4294965536 x=4294967076
# PC=         8 y=4294965536 x=4294967076
# PC=        12 y=4294965536 x=4294967076
# PC=        16 y=4294965316 x=4294967076
# PC=        20 y=4294965316 x=4294967066
# PC=        24 y=4294965316 x=4294967066
# PC=         8 y=4294965316 x=4294967066
# PC=        12 y=4294965316 x=4294967066
# PC=        16 y=4294965086 x=4294967066
# PC=        20 y=4294965086 x=4294967056
# PC=        24 y=4294965086 x=4294967056
# PC=         8 y=4294965086 x=4294967056
# PC=        12 y=4294965086 x=4294967056
# PC=        16 y=4294964846 x=4294967056
# PC=        20 y=4294964846 x=4294967046
# PC=        24 y=4294964846 x=4294967046
# PC=         8 y=4294964846 x=4294967046
# PC=        12 y=4294964846 x=4294967046
# PC=        16 y=4294964596 x=4294967046
# PC=        20 y=4294964596 x=4294967036
# PC=        24 y=4294964596 x=4294967036
# PC=         8 y=4294964596 x=4294967036
# PC=        12 y=4294964596 x=4294967036
# PC=        16 y=4294964336 x=4294967036
# PC=        20 y=4294964336 x=4294967026
# PC=        24 y=4294964336 x=4294967026
# PC=         8 y=4294964336 x=4294967026
# PC=        12 y=4294964336 x=4294967026
# PC=        16 y=4294964066 x=4294967026
# PC=        20 y=4294964066 x=4294967016
# PC=        24 y=4294964066 x=4294967016
# PC=         8 y=4294964066 x=4294967016
# PC=        12 y=4294964066 x=4294967016
# PC=        16 y=4294963786 x=4294967016
# PC=        20 y=4294963786 x=4294967006
# PC=        24 y=4294963786 x=4294967006
# PC=         8 y=4294963786 x=4294967006
# PC=        12 y=4294963786 x=4294967006
# PC=        16 y=4294963496 x=4294967006
# PC=        20 y=4294963496 x=4294966996
# PC=        24 y=4294963496 x=4294966996
# PC=         8 y=4294963496 x=4294966996
# PC=        12 y=4294963496 x=4294966996
# PC=        16 y=4294963196 x=4294966996
# PC=        20 y=4294963196 x=4294966986
# PC=        24 y=4294963196 x=4294966986
# PC=         8 y=4294963196 x=4294966986
# PC=        12 y=4294963196 x=4294966986
# PC=        16 y=4294962886 x=4294966986
# PC=        20 y=4294962886 x=4294966976
# PC=        24 y=4294962886 x=4294966976
# PC=         8 y=4294962886 x=4294966976
# PC=        12 y=4294962886 x=4294966976
# PC=        16 y=4294962566 x=4294966976
# PC=        20 y=4294962566 x=4294966966
# PC=        24 y=4294962566 x=4294966966
# PC=         8 y=4294962566 x=4294966966
# PC=        12 y=4294962566 x=4294966966
# PC=        16 y=4294962236 x=4294966966
# PC=        20 y=4294962236 x=4294966956
# PC=        24 y=4294962236 x=4294966956
# PC=         8 y=4294962236 x=4294966956
# PC=        12 y=4294962236 x=4294966956
# PC=        16 y=4294961896 x=4294966956
# PC=        20 y=4294961896 x=4294966946
# PC=        24 y=4294961896 x=4294966946
# PC=         8 y=4294961896 x=4294966946
# PC=        12 y=4294961896 x=4294966946
# PC=        16 y=4294961546 x=4294966946
# PC=        20 y=4294961546 x=4294966936
# PC=        24 y=4294961546 x=4294966936
# PC=         8 y=4294961546 x=4294966936
# PC=        12 y=4294961546 x=4294966936
# PC=        16 y=4294961186 x=4294966936
# PC=        20 y=4294961186 x=4294966926
# PC=        24 y=4294961186 x=4294966926
# PC=         8 y=4294961186 x=4294966926
# PC=        12 y=4294961186 x=4294966926
# PC=        16 y=4294960816 x=4294966926
# PC=        20 y=4294960816 x=4294966916
# PC=        24 y=4294960816 x=4294966916
# PC=         8 y=4294960816 x=4294966916
# PC=        12 y=4294960816 x=4294966916
# PC=        16 y=4294960436 x=4294966916
# PC=        20 y=4294960436 x=4294966906
# PC=        24 y=4294960436 x=4294966906
# PC=         8 y=4294960436 x=4294966906
# PC=        12 y=4294960436 x=4294966906
# PC=        16 y=4294960046 x=4294966906
# PC=        20 y=4294960046 x=4294966896
# PC=        24 y=4294960046 x=4294966896
# PC=         8 y=4294960046 x=4294966896
# PC=        12 y=4294960046 x=4294966896
# PC=        16 y=4294959646 x=4294966896
# PC=        20 y=4294959646 x=4294966886
# PC=        24 y=4294959646 x=4294966886
# PC=         8 y=4294959646 x=4294966886
# PC=        12 y=4294959646 x=4294966886
# PC=        16 y=4294959236 x=4294966886
# PC=        20 y=4294959236 x=4294966876
# PC=        24 y=4294959236 x=4294966876
# PC=         8 y=4294959236 x=4294966876
# PC=        12 y=4294959236 x=4294966876
# PC=        16 y=4294958816 x=4294966876
# PC=        20 y=4294958816 x=4294966866
# PC=        24 y=4294958816 x=4294966866
# PC=         8 y=4294958816 x=4294966866
# PC=        12 y=4294958816 x=4294966866
# PC=        16 y=4294958386 x=4294966866
# PC=        20 y=4294958386 x=4294966856
# PC=        24 y=4294958386 x=4294966856
# PC=         8 y=4294958386 x=4294966856
# PC=        12 y=4294958386 x=4294966856
# PC=        16 y=4294957946 x=4294966856
# PC=        20 y=4294957946 x=4294966846
# PC=        24 y=4294957946 x=4294966846
# PC=         8 y=4294957946 x=4294966846
# PC=        12 y=4294957946 x=4294966846
# PC=        16 y=4294957496 x=4294966846
# PC=        20 y=4294957496 x=4294966836
# PC=        24 y=4294957496 x=4294966836
# PC=         8 y=4294957496 x=4294966836
# PC=        12 y=4294957496 x=4294966836
# PC=        16 y=4294957036 x=4294966836
# PC=        20 y=4294957036 x=4294966826
# PC=        24 y=4294957036 x=4294966826
# PC=         8 y=4294957036 x=4294966826
# PC=        12 y=4294957036 x=4294966826
# PC=        16 y=4294956566 x=4294966826
# PC=        20 y=4294956566 x=4294966816
# PC=        24 y=4294956566 x=4294966816
# PC=         8 y=4294956566 x=4294966816
# PC=        12 y=4294956566 x=4294966816
# PC=        16 y=4294956086 x=4294966816
# PC=        20 y=4294956086 x=4294966806
# PC=        24 y=4294956086 x=4294966806
# PC=         8 y=4294956086 x=4294966806
# PC=        12 y=4294956086 x=4294966806
# PC=        16 y=4294955596 x=4294966806
# PC=        20 y=4294955596 x=4294966796
# PC=        24 y=4294955596 x=4294966796
# PC=         8 y=4294955596 x=4294966796
# PC=        12 y=4294955596 x=4294966796
# PC=        16 y=4294955096 x=4294966796
# PC=        20 y=4294955096 x=4294966786
# PC=        24 y=4294955096 x=4294966786
# PC=         8 y=4294955096 x=4294966786
# PC=        12 y=4294955096 x=4294966786
# PC=        16 y=4294954586 x=4294966786
# PC=        20 y=4294954586 x=4294966776
# PC=        24 y=4294954586 x=4294966776
# PC=         8 y=4294954586 x=4294966776
# PC=        12 y=4294954586 x=4294966776
# PC=        16 y=4294954066 x=4294966776
# PC=        20 y=4294954066 x=4294966766
# PC=        24 y=4294954066 x=4294966766
# PC=         8 y=4294954066 x=4294966766
# PC=        12 y=4294954066 x=4294966766
# PC=        16 y=4294953536 x=4294966766
# PC=        20 y=4294953536 x=4294966756
# PC=        24 y=4294953536 x=4294966756
# PC=         8 y=4294953536 x=4294966756
# PC=        12 y=4294953536 x=4294966756
# PC=        16 y=4294952996 x=4294966756
# PC=        20 y=4294952996 x=4294966746
# PC=        24 y=4294952996 x=4294966746
# PC=         8 y=4294952996 x=4294966746
# PC=        12 y=4294952996 x=4294966746
# PC=        16 y=4294952446 x=4294966746
# PC=        20 y=4294952446 x=4294966736
# PC=        24 y=4294952446 x=4294966736
# PC=         8 y=4294952446 x=4294966736
# PC=        12 y=4294952446 x=4294966736
# PC=        16 y=4294951886 x=4294966736
# PC=        20 y=4294951886 x=4294966726
# PC=        24 y=4294951886 x=4294966726
# PC=         8 y=4294951886 x=4294966726
# PC=        12 y=4294951886 x=4294966726
# PC=        16 y=4294951316 x=4294966726
# PC=        20 y=4294951316 x=4294966716
# PC=        24 y=4294951316 x=4294966716
# PC=         8 y=4294951316 x=4294966716
# PC=        12 y=4294951316 x=4294966716
# PC=        16 y=4294950736 x=4294966716
# PC=        20 y=4294950736 x=4294966706
# PC=        24 y=4294950736 x=4294966706
# PC=         8 y=4294950736 x=4294966706
# PC=        12 y=4294950736 x=4294966706
# PC=        16 y=4294950146 x=4294966706
# PC=        20 y=4294950146 x=4294966696
# PC=        24 y=4294950146 x=4294966696
# PC=         8 y=4294950146 x=4294966696
# PC=        12 y=4294950146 x=4294966696
# PC=        16 y=4294949546 x=4294966696
# PC=        20 y=4294949546 x=4294966686
# PC=        24 y=4294949546 x=4294966686
# PC=         8 y=4294949546 x=4294966686
# PC=        12 y=4294949546 x=4294966686
# PC=        16 y=4294948936 x=4294966686
# PC=        20 y=4294948936 x=4294966676
# PC=        24 y=4294948936 x=4294966676
# PC=         8 y=4294948936 x=4294966676
# PC=        12 y=4294948936 x=4294966676
# PC=        16 y=4294948316 x=4294966676
# PC=        20 y=4294948316 x=4294966666
# PC=        24 y=4294948316 x=4294966666
# PC=         8 y=4294948316 x=4294966666
# PC=        12 y=4294948316 x=4294966666
# PC=        16 y=4294947686 x=4294966666
# PC=        20 y=4294947686 x=4294966656
# PC=        24 y=4294947686 x=4294966656
# PC=         8 y=4294947686 x=4294966656
# PC=        12 y=4294947686 x=4294966656
# PC=        16 y=4294947046 x=4294966656
# PC=        20 y=4294947046 x=4294966646
# PC=        24 y=4294947046 x=4294966646
# PC=         8 y=4294947046 x=4294966646
# PC=        12 y=4294947046 x=4294966646
# PC=        16 y=4294946396 x=4294966646
# PC=        20 y=4294946396 x=4294966636
# PC=        24 y=4294946396 x=4294966636
# PC=         8 y=4294946396 x=4294966636
# PC=        12 y=4294946396 x=4294966636
# PC=        16 y=4294945736 x=4294966636
# PC=        20 y=4294945736 x=4294966626
# PC=        24 y=4294945736 x=4294966626
# PC=         8 y=4294945736 x=4294966626
# PC=        12 y=4294945736 x=4294966626
# PC=        16 y=4294945066 x=4294966626
# PC=        20 y=4294945066 x=4294966616
# PC=        24 y=4294945066 x=4294966616
# PC=         8 y=4294945066 x=4294966616
# PC=        12 y=4294945066 x=4294966616
# PC=        16 y=4294944386 x=4294966616
# PC=        20 y=4294944386 x=4294966606
# PC=        24 y=4294944386 x=4294966606
# PC=         8 y=4294944386 x=4294966606
# PC=        12 y=4294944386 x=4294966606
# PC=        16 y=4294943696 x=4294966606
# PC=        20 y=4294943696 x=4294966596
# PC=        24 y=4294943696 x=4294966596
# PC=         8 y=4294943696 x=4294966596
# PC=        12 y=4294943696 x=4294966596
# PC=        16 y=4294942996 x=4294966596
# PC=        20 y=4294942996 x=4294966586
# PC=        24 y=4294942996 x=4294966586
# PC=         8 y=4294942996 x=4294966586
# PC=        12 y=4294942996 x=4294966586
# PC=        16 y=4294942286 x=4294966586
# PC=        20 y=4294942286 x=4294966576
# PC=        24 y=4294942286 x=4294966576
# PC=         8 y=4294942286 x=4294966576
# PC=        12 y=4294942286 x=4294966576
# PC=        16 y=4294941566 x=4294966576
# PC=        20 y=4294941566 x=4294966566
# PC=        24 y=4294941566 x=4294966566
# PC=         8 y=4294941566 x=4294966566
# PC=        12 y=4294941566 x=4294966566
# PC=        16 y=4294940836 x=4294966566
# PC=        20 y=4294940836 x=4294966556
# PC=        24 y=4294940836 x=4294966556
# PC=         8 y=4294940836 x=4294966556
# PC=        12 y=4294940836 x=4294966556
# PC=        16 y=4294940096 x=4294966556
# PC=        20 y=4294940096 x=4294966546
# PC=        24 y=4294940096 x=4294966546
# PC=         8 y=4294940096 x=4294966546
# PC=        12 y=4294940096 x=4294966546
# PC=        16 y=4294939346 x=4294966546
# PC=        20 y=4294939346 x=4294966536
# PC=        24 y=4294939346 x=4294966536
# PC=         8 y=4294939346 x=4294966536
# PC=        12 y=4294939346 x=4294966536
# PC=        16 y=4294938586 x=4294966536
# PC=        20 y=4294938586 x=4294966526
# PC=        24 y=4294938586 x=4294966526
# PC=         8 y=4294938586 x=4294966526
# PC=        12 y=4294938586 x=4294966526
# PC=        16 y=4294937816 x=4294966526
# PC=        20 y=4294937816 x=4294966516
# PC=        24 y=4294937816 x=4294966516
# PC=         8 y=4294937816 x=4294966516
# PC=        12 y=4294937816 x=4294966516
# PC=        16 y=4294937036 x=4294966516
# PC=        20 y=4294937036 x=4294966506
# PC=        24 y=4294937036 x=4294966506
# PC=         8 y=4294937036 x=4294966506
# PC=        12 y=4294937036 x=4294966506
# PC=        16 y=4294936246 x=4294966506
# PC=        20 y=4294936246 x=4294966496
# PC=        24 y=4294936246 x=4294966496
# PC=         8 y=4294936246 x=4294966496
# PC=        12 y=4294936246 x=4294966496
# PC=        16 y=4294935446 x=4294966496
# PC=        20 y=4294935446 x=4294966486
# PC=        24 y=4294935446 x=4294966486
# PC=         8 y=4294935446 x=4294966486
# PC=        12 y=4294935446 x=4294966486
# PC=        16 y=4294934636 x=4294966486
# PC=        20 y=4294934636 x=4294966476
# PC=        24 y=4294934636 x=4294966476
# PC=         8 y=4294934636 x=4294966476
# PC=        12 y=4294934636 x=4294966476
# PC=        16 y=4294933816 x=4294966476
# PC=        20 y=4294933816 x=4294966466
# PC=        24 y=4294933816 x=4294966466
# PC=         8 y=4294933816 x=4294966466
# PC=        12 y=4294933816 x=4294966466
# PC=        16 y=4294932986 x=4294966466
# PC=        20 y=4294932986 x=4294966456
# PC=        24 y=4294932986 x=4294966456
# PC=         8 y=4294932986 x=4294966456
# PC=        12 y=4294932986 x=4294966456
# PC=        16 y=4294932146 x=4294966456
# PC=        20 y=4294932146 x=4294966446
# PC=        24 y=4294932146 x=4294966446
# PC=         8 y=4294932146 x=4294966446
# PC=        12 y=4294932146 x=4294966446
# PC=        16 y=4294931296 x=4294966446
# PC=        20 y=4294931296 x=4294966436
# PC=        24 y=4294931296 x=4294966436
# PC=         8 y=4294931296 x=4294966436
# PC=        12 y=4294931296 x=4294966436
# PC=        16 y=4294930436 x=4294966436
# PC=        20 y=4294930436 x=4294966426
# PC=        24 y=4294930436 x=4294966426
# PC=         8 y=4294930436 x=4294966426
# PC=        12 y=4294930436 x=4294966426
# PC=        16 y=4294929566 x=4294966426
# PC=        20 y=4294929566 x=4294966416
# PC=        24 y=4294929566 x=4294966416
# PC=         8 y=4294929566 x=4294966416
# PC=        12 y=4294929566 x=4294966416
# PC=        16 y=4294928686 x=4294966416
# PC=        20 y=4294928686 x=4294966406
# PC=        24 y=4294928686 x=4294966406
# PC=         8 y=4294928686 x=4294966406
# PC=        12 y=4294928686 x=4294966406
# PC=        16 y=4294927796 x=4294966406
# PC=        20 y=4294927796 x=4294966396
# PC=        24 y=4294927796 x=4294966396
# PC=         8 y=4294927796 x=4294966396
# PC=        12 y=4294927796 x=4294966396
# PC=        16 y=4294926896 x=4294966396
# PC=        20 y=4294926896 x=4294966386
# PC=        24 y=4294926896 x=4294966386
# PC=         8 y=4294926896 x=4294966386
# PC=        12 y=4294926896 x=4294966386
# PC=        16 y=4294925986 x=4294966386
# PC=        20 y=4294925986 x=4294966376
# PC=        24 y=4294925986 x=4294966376
# PC=         8 y=4294925986 x=4294966376
# PC=        12 y=4294925986 x=4294966376
# PC=        16 y=4294925066 x=4294966376
# PC=        20 y=4294925066 x=4294966366
# PC=        24 y=4294925066 x=4294966366
# PC=         8 y=4294925066 x=4294966366
# PC=        12 y=4294925066 x=4294966366
# PC=        16 y=4294924136 x=4294966366
# PC=        20 y=4294924136 x=4294966356
# PC=        24 y=4294924136 x=4294966356
# PC=         8 y=4294924136 x=4294966356
# PC=        12 y=4294924136 x=4294966356
# PC=        16 y=4294923196 x=4294966356
# PC=        20 y=4294923196 x=4294966346
# PC=        24 y=4294923196 x=4294966346
# PC=         8 y=4294923196 x=4294966346
# PC=        12 y=4294923196 x=4294966346
# PC=        16 y=4294922246 x=4294966346
# PC=        20 y=4294922246 x=4294966336
# PC=        24 y=4294922246 x=4294966336
# PC=         8 y=4294922246 x=4294966336
# PC=        12 y=4294922246 x=4294966336
# PC=        16 y=4294921286 x=4294966336
# PC=        20 y=4294921286 x=4294966326
# PC=        24 y=4294921286 x=4294966326
# PC=         8 y=4294921286 x=4294966326
# PC=        12 y=4294921286 x=4294966326
# PC=        16 y=4294920316 x=4294966326
# PC=        20 y=4294920316 x=4294966316
# PC=        24 y=4294920316 x=4294966316
# PC=         8 y=4294920316 x=4294966316
# PC=        12 y=4294920316 x=4294966316
# PC=        16 y=4294919336 x=4294966316
# PC=        20 y=4294919336 x=4294966306
# PC=        24 y=4294919336 x=4294966306
# PC=         8 y=4294919336 x=4294966306
# PC=        12 y=4294919336 x=4294966306
# PC=        16 y=4294918346 x=4294966306
# PC=        20 y=4294918346 x=4294966296
# PC=        24 y=4294918346 x=4294966296
# PC=         8 y=4294918346 x=4294966296
# PC=        12 y=4294918346 x=4294966296
# PC=        16 y=4294917346 x=4294966296
# PC=        20 y=4294917346 x=4294966286
# PC=        24 y=4294917346 x=4294966286
# PC=         8 y=4294917346 x=4294966286
# PC=        12 y=4294917346 x=4294966286
# PC=        16 y=4294916336 x=4294966286
# PC=        20 y=4294916336 x=4294966276
# PC=        24 y=4294916336 x=4294966276
# PC=         8 y=4294916336 x=4294966276
# PC=        12 y=4294916336 x=4294966276
# PC=        16 y=4294915316 x=4294966276
# PC=        20 y=4294915316 x=4294966266
# PC=        24 y=4294915316 x=4294966266
# PC=         8 y=4294915316 x=4294966266
# PC=        12 y=4294915316 x=4294966266
# PC=        16 y=4294914286 x=4294966266
# PC=        20 y=4294914286 x=4294966256
# PC=        24 y=4294914286 x=4294966256
# PC=         8 y=4294914286 x=4294966256
# PC=        12 y=4294914286 x=4294966256
# PC=        16 y=4294913246 x=4294966256
# PC=        20 y=4294913246 x=4294966246
# PC=        24 y=4294913246 x=4294966246
# PC=         8 y=4294913246 x=4294966246
# PC=        12 y=4294913246 x=4294966246
# PC=        16 y=4294912196 x=4294966246
# PC=        20 y=4294912196 x=4294966236
# PC=        24 y=4294912196 x=4294966236
# PC=         8 y=4294912196 x=4294966236
# PC=        12 y=4294912196 x=4294966236
# PC=        16 y=4294911136 x=4294966236
# PC=        20 y=4294911136 x=4294966226
# PC=        24 y=4294911136 x=4294966226
# PC=         8 y=4294911136 x=4294966226
# PC=        12 y=4294911136 x=4294966226
# PC=        16 y=4294910066 x=4294966226
# PC=        20 y=4294910066 x=4294966216
# PC=        24 y=4294910066 x=4294966216
# PC=         8 y=4294910066 x=4294966216
# PC=        12 y=4294910066 x=4294966216
# PC=        16 y=4294908986 x=4294966216
# PC=        20 y=4294908986 x=4294966206
# PC=        24 y=4294908986 x=4294966206
# PC=         8 y=4294908986 x=4294966206
# PC=        12 y=4294908986 x=4294966206
# PC=        16 y=4294907896 x=4294966206
# PC=        20 y=4294907896 x=4294966196
# PC=        24 y=4294907896 x=4294966196
# PC=         8 y=4294907896 x=4294966196
# PC=        12 y=4294907896 x=4294966196
# PC=        16 y=4294906796 x=4294966196
# PC=        20 y=4294906796 x=4294966186
# PC=        24 y=4294906796 x=4294966186
# PC=         8 y=4294906796 x=4294966186
# PC=        12 y=4294906796 x=4294966186
# PC=        16 y=4294905686 x=4294966186
# PC=        20 y=4294905686 x=4294966176
# PC=        24 y=4294905686 x=4294966176
# PC=         8 y=4294905686 x=4294966176
# PC=        12 y=4294905686 x=4294966176
# PC=        16 y=4294904566 x=4294966176
# PC=        20 y=4294904566 x=4294966166
# PC=        24 y=4294904566 x=4294966166
# PC=         8 y=4294904566 x=4294966166
# PC=        12 y=4294904566 x=4294966166
# PC=        16 y=4294903436 x=4294966166
# PC=        20 y=4294903436 x=4294966156
# PC=        24 y=4294903436 x=4294966156
# PC=         8 y=4294903436 x=4294966156
# PC=        12 y=4294903436 x=4294966156
# PC=        16 y=4294902296 x=4294966156
# PC=        20 y=4294902296 x=4294966146
# PC=        24 y=4294902296 x=4294966146
# PC=         8 y=4294902296 x=4294966146
# PC=        12 y=4294902296 x=4294966146
# PC=        16 y=4294901146 x=4294966146
# PC=        20 y=4294901146 x=4294966136
# PC=        24 y=4294901146 x=4294966136
# PC=         8 y=4294901146 x=4294966136
# PC=        12 y=4294901146 x=4294966136
# PC=        16 y=4294899986 x=4294966136
# PC=        20 y=4294899986 x=4294966126
# PC=        24 y=4294899986 x=4294966126
# PC=         8 y=4294899986 x=4294966126
# PC=        12 y=4294899986 x=4294966126
# PC=        16 y=4294898816 x=4294966126
# PC=        20 y=4294898816 x=4294966116
# PC=        24 y=4294898816 x=4294966116
# PC=         8 y=4294898816 x=4294966116
# PC=        12 y=4294898816 x=4294966116
# PC=        16 y=4294897636 x=4294966116
# PC=        20 y=4294897636 x=4294966106
# PC=        24 y=4294897636 x=4294966106
# PC=         8 y=4294897636 x=4294966106
# PC=        12 y=4294897636 x=4294966106
# PC=        16 y=4294896446 x=4294966106
# PC=        20 y=4294896446 x=4294966096
# PC=        24 y=4294896446 x=4294966096
# PC=         8 y=4294896446 x=4294966096
# PC=        12 y=4294896446 x=4294966096
# PC=        16 y=4294895246 x=4294966096
# PC=        20 y=4294895246 x=4294966086
# PC=        24 y=4294895246 x=4294966086
# PC=         8 y=4294895246 x=4294966086
# PC=        12 y=4294895246 x=4294966086
# PC=        16 y=4294894036 x=4294966086
# PC=        20 y=4294894036 x=4294966076
# PC=        24 y=4294894036 x=4294966076
# PC=         8 y=4294894036 x=4294966076
# PC=        12 y=4294894036 x=4294966076
# PC=        16 y=4294892816 x=4294966076
# PC=        20 y=4294892816 x=4294966066
# PC=        24 y=4294892816 x=4294966066
# PC=         8 y=4294892816 x=4294966066
# PC=        12 y=4294892816 x=4294966066
# PC=        16 y=4294891586 x=4294966066
# PC=        20 y=4294891586 x=4294966056
# PC=        24 y=4294891586 x=4294966056
# PC=         8 y=4294891586 x=4294966056
# PC=        12 y=4294891586 x=4294966056
# PC=        16 y=4294890346 x=4294966056
# PC=        20 y=4294890346 x=4294966046
# PC=        24 y=4294890346 x=4294966046
# PC=         8 y=4294890346 x=4294966046
# PC=        12 y=4294890346 x=4294966046
# PC=        16 y=4294889096 x=4294966046
# PC=        20 y=4294889096 x=4294966036
# PC=        24 y=4294889096 x=4294966036
# PC=         8 y=4294889096 x=4294966036
# PC=        12 y=4294889096 x=4294966036
# PC=        16 y=4294887836 x=4294966036
# PC=        20 y=4294887836 x=4294966026
# PC=        24 y=4294887836 x=4294966026
# PC=         8 y=4294887836 x=4294966026
# PC=        12 y=4294887836 x=4294966026
# PC=        16 y=4294886566 x=4294966026
# PC=        20 y=4294886566 x=4294966016
# PC=        24 y=4294886566 x=4294966016
# PC=         8 y=4294886566 x=4294966016
# PC=        12 y=4294886566 x=4294966016
# PC=        16 y=4294885286 x=4294966016
# PC=        20 y=4294885286 x=4294966006
# PC=        24 y=4294885286 x=4294966006
# PC=         8 y=4294885286 x=4294966006
# PC=        12 y=4294885286 x=4294966006
# PC=        16 y=4294883996 x=4294966006
# PC=        20 y=4294883996 x=4294965996
# PC=        24 y=4294883996 x=4294965996
# PC=         8 y=4294883996 x=4294965996
# PC=        12 y=4294883996 x=4294965996
