transcript
# vsim -voptargs="+acc" -c RISC_V_tb -do "run -all; exit" 
# Start time: 01:37:50 on Mar 30,2023
# ** Note: (vsim-8009) Loading existing optimized design _opt
# //  ModelSim SE-64 10.6d Feb 24 2018
# //
# //  Copyright 1991-2018 Mentor Graphics Corporation
# //  All Rights Reserved.
# //
# //  ModelSim SE-64 and its associated documentation contain trade
# //  secrets and commercial or financial information that are the property of
# //  Mentor Graphics Corporation and are privileged, confidential,
# //  and exempt from disclosure under the Freedom of Information Act,
# //  5 U.S.C. Section 552. Furthermore, this information
# //  is prohibited from disclosure under the Trade Secrets Act,
# //  18 U.S.C. Section 1905.
# //
# Loading sv_std.std
# Loading work.RISC_V_tb(fast)
# Loading work.RISC_V(fast)
# Loading work.Controller(fast)
# Loading work.LS_controller(fast)
# Loading work.data_path(fast)
# Loading work.Regfile(fast)
# Loading work.ALU(fast)
# Loading work.mux16x1(fast)
# Loading work.Instrmem(fast)
# Loading work.data_mem(fast)
# Loading work.Branch_block(fast)
# run -all
# PC=         x rdata1=         x rdata2=         x Imm=         x wb_sel=xx A_sel=x bsel=x
# wdata=xxxxxxxx factorial=         3 num=         7 aluout=         x aluctrl= x
# PC=         0 rdata1=         0 rdata2=         6 Imm=         4 wb_sel=01 A_sel=1 bsel=1
# wdata=00000004 factorial=         3 num=         4 aluout=         4 aluctrl= 0
# PC=         4 rdata1=         0 rdata2=         2 Imm=         1 wb_sel=01 A_sel=1 bsel=1
# wdata=00000001 factorial=         1 num=         4 aluout=         1 aluctrl= 0
# PC=         8 rdata1=         0 rdata2=         0 Imm=         0 wb_sel=01 A_sel=1 bsel=1
# wdata=00000000 factorial=         1 num=         4 aluout=         0 aluctrl= 0
# PC=        12 rdata1=         0 rdata2=        22 Imm=         2 wb_sel=01 A_sel=1 bsel=1
# wdata=00000002 factorial=         1 num=         4 aluout=         2 aluctrl= 0
# PC=        16 rdata1=         4 rdata2=         2 Imm=        40 wb_sel=xx A_sel=0 bsel=1
# wdata=xxxxxxxx factorial=         1 num=         4 aluout=        56 aluctrl= 0
# PC=        20 rdata1=         2 rdata2=         0 Imm=         0 wb_sel=01 A_sel=1 bsel=1
# wdata=00000002 factorial=         1 num=         4 aluout=         2 aluctrl= 0
# PC=        24 rdata1=         2 rdata2=         0 Imm=        16 wb_sel=xx A_sel=0 bsel=1
# wdata=xxxxxxxx factorial=         1 num=         4 aluout=        40 aluctrl= 0
# default here!! 101100
# PC=        28 rdata1=         1 rdata2=         1 Imm=         x wb_sel=01 A_sel=1 bsel=0
# wdata=00000002 factorial=         1 num=         4 aluout=         2 aluctrl= 0
# PC=        32 rdata1=         1 rdata2=         x Imm=4294967295 wb_sel=01 A_sel=1 bsel=1
# wdata=00000000 factorial=         1 num=         4 aluout=         0 aluctrl= 0
# PC=        36 rdata1=         x rdata2=         3 Imm=4294967284 wb_sel=00 A_sel=0 bsel=1
# wdata=00000028 factorial=         1 num=         4 aluout=        24 aluctrl= 0
# PC=        24 rdata1=         1 rdata2=         0 Imm=        16 wb_sel=xx A_sel=0 bsel=1
# wdata=xxxxxxxx factorial=         1 num=         4 aluout=        40 aluctrl= 0
# default here!! 101100
# PC=        28 rdata1=         2 rdata2=         1 Imm=         x wb_sel=01 A_sel=1 bsel=0
# wdata=00000003 factorial=         1 num=         4 aluout=         3 aluctrl= 0
# PC=        32 rdata1=         0 rdata2=         x Imm=4294967295 wb_sel=01 A_sel=1 bsel=1
# wdata=ffffffff factorial=         1 num=         4 aluout=4294967295 aluctrl= 0
# PC=        36 rdata1=         x rdata2=         3 Imm=4294967284 wb_sel=00 A_sel=0 bsel=1
# wdata=00000028 factorial=         1 num=         4 aluout=        24 aluctrl= 0
# PC=        24 rdata1=         0 rdata2=         0 Imm=        16 wb_sel=xx A_sel=0 bsel=1
# wdata=xxxxxxxx factorial=         1 num=         4 aluout=        40 aluctrl= 0
# PC=        40 rdata1=         2 rdata2=         0 Imm=         0 wb_sel=01 A_sel=1 bsel=1
# wdata=00000002 factorial=         2 num=         4 aluout=         2 aluctrl= 0
# PC=        44 rdata1=         0 rdata2=         0 Imm=         0 wb_sel=01 A_sel=1 bsel=1
# wdata=00000000 factorial=         2 num=         4 aluout=         0 aluctrl= 0
# PC=        48 rdata1=         3 rdata2=         2 Imm=         1 wb_sel=01 A_sel=1 bsel=1
# wdata=00000004 factorial=         2 num=         4 aluout=         4 aluctrl= 0
# PC=        52 rdata1=         x rdata2=         x Imm=4294967260 wb_sel=00 A_sel=0 bsel=1
# wdata=00000038 factorial=         2 num=         4 aluout=        16 aluctrl= 0
# PC=        16 rdata1=         4 rdata2=         3 Imm=        40 wb_sel=xx A_sel=0 bsel=1
# wdata=xxxxxxxx factorial=         2 num=         4 aluout=        56 aluctrl= 0
# PC=        20 rdata1=         3 rdata2=         0 Imm=         0 wb_sel=01 A_sel=1 bsel=1
# wdata=00000003 factorial=         2 num=         4 aluout=         3 aluctrl= 0
# PC=        24 rdata1=         3 rdata2=         0 Imm=        16 wb_sel=xx A_sel=0 bsel=1
# wdata=xxxxxxxx factorial=         2 num=         4 aluout=        40 aluctrl= 0
# default here!! 101100
# PC=        28 rdata1=         2 rdata2=         2 Imm=         x wb_sel=01 A_sel=1 bsel=0
# wdata=00000004 factorial=         2 num=         4 aluout=         4 aluctrl= 0
# PC=        32 rdata1=         2 rdata2=         x Imm=4294967295 wb_sel=01 A_sel=1 bsel=1
# wdata=00000001 factorial=         2 num=         4 aluout=         1 aluctrl= 0
# PC=        36 rdata1=         x rdata2=         3 Imm=4294967284 wb_sel=00 A_sel=0 bsel=1
# wdata=00000028 factorial=         2 num=         4 aluout=        24 aluctrl= 0
# PC=        24 rdata1=         2 rdata2=         0 Imm=        16 wb_sel=xx A_sel=0 bsel=1
# wdata=xxxxxxxx factorial=         2 num=         4 aluout=        40 aluctrl= 0
# default here!! 101100
# PC=        28 rdata1=         4 rdata2=         2 Imm=         x wb_sel=01 A_sel=1 bsel=0
# wdata=00000006 factorial=         2 num=         4 aluout=         6 aluctrl= 0
# PC=        32 rdata1=         1 rdata2=         x Imm=4294967295 wb_sel=01 A_sel=1 bsel=1
# wdata=00000000 factorial=         2 num=         4 aluout=         0 aluctrl= 0
# PC=        36 rdata1=         x rdata2=         3 Imm=4294967284 wb_sel=00 A_sel=0 bsel=1
# wdata=00000028 factorial=         2 num=         4 aluout=        24 aluctrl= 0
# PC=        24 rdata1=         1 rdata2=         0 Imm=        16 wb_sel=xx A_sel=0 bsel=1
# wdata=xxxxxxxx factorial=         2 num=         4 aluout=        40 aluctrl= 0
# default here!! 101100
# PC=        28 rdata1=         6 rdata2=         2 Imm=         x wb_sel=01 A_sel=1 bsel=0
# wdata=00000008 factorial=         2 num=         4 aluout=         8 aluctrl= 0
# PC=        32 rdata1=         0 rdata2=         x Imm=4294967295 wb_sel=01 A_sel=1 bsel=1
# wdata=ffffffff factorial=         2 num=         4 aluout=4294967295 aluctrl= 0
# PC=        36 rdata1=         x rdata2=         3 Imm=4294967284 wb_sel=00 A_sel=0 bsel=1
# wdata=00000028 factorial=         2 num=         4 aluout=        24 aluctrl= 0
# PC=        24 rdata1=         0 rdata2=         0 Imm=        16 wb_sel=xx A_sel=0 bsel=1
# wdata=xxxxxxxx factorial=         2 num=         4 aluout=        40 aluctrl= 0
# PC=        40 rdata1=         6 rdata2=         0 Imm=         0 wb_sel=01 A_sel=1 bsel=1
# wdata=00000006 factorial=         6 num=         4 aluout=         6 aluctrl= 0
# PC=        44 rdata1=         0 rdata2=         0 Imm=         0 wb_sel=01 A_sel=1 bsel=1
# wdata=00000000 factorial=         6 num=         4 aluout=         0 aluctrl= 0
# PC=        48 rdata1=         4 rdata2=         2 Imm=         1 wb_sel=01 A_sel=1 bsel=1
# wdata=00000005 factorial=         6 num=         4 aluout=         5 aluctrl= 0
# PC=        52 rdata1=         x rdata2=         x Imm=4294967260 wb_sel=00 A_sel=0 bsel=1
# wdata=00000038 factorial=         6 num=         4 aluout=        16 aluctrl= 0
# PC=        16 rdata1=         4 rdata2=         4 Imm=        40 wb_sel=xx A_sel=0 bsel=1
# wdata=xxxxxxxx factorial=         6 num=         4 aluout=        56 aluctrl= 0
# PC=        20 rdata1=         4 rdata2=         0 Imm=         0 wb_sel=01 A_sel=1 bsel=1
# wdata=00000004 factorial=         6 num=         4 aluout=         4 aluctrl= 0
# PC=        24 rdata1=         4 rdata2=         0 Imm=        16 wb_sel=xx A_sel=0 bsel=1
# wdata=xxxxxxxx factorial=         6 num=         4 aluout=        40 aluctrl= 0
# default here!! 101100
# PC=        28 rdata1=         6 rdata2=         6 Imm=         x wb_sel=01 A_sel=1 bsel=0
# wdata=0000000c factorial=         6 num=         4 aluout=        12 aluctrl= 0
# PC=        32 rdata1=         3 rdata2=         x Imm=4294967295 wb_sel=01 A_sel=1 bsel=1
# wdata=00000002 factorial=         6 num=         4 aluout=         2 aluctrl= 0
# PC=        36 rdata1=         x rdata2=         3 Imm=4294967284 wb_sel=00 A_sel=0 bsel=1
# wdata=00000028 factorial=         6 num=         4 aluout=        24 aluctrl= 0
# PC=        24 rdata1=         3 rdata2=         0 Imm=        16 wb_sel=xx A_sel=0 bsel=1
# wdata=xxxxxxxx factorial=         6 num=         4 aluout=        40 aluctrl= 0
# default here!! 101100
# PC=        28 rdata1=        12 rdata2=         6 Imm=         x wb_sel=01 A_sel=1 bsel=0
# wdata=00000012 factorial=         6 num=         4 aluout=        18 aluctrl= 0
# PC=        32 rdata1=         2 rdata2=         x Imm=4294967295 wb_sel=01 A_sel=1 bsel=1
# wdata=00000001 factorial=         6 num=         4 aluout=         1 aluctrl= 0
# PC=        36 rdata1=         x rdata2=         3 Imm=4294967284 wb_sel=00 A_sel=0 bsel=1
# wdata=00000028 factorial=         6 num=         4 aluout=        24 aluctrl= 0
# PC=        24 rdata1=         2 rdata2=         0 Imm=        16 wb_sel=xx A_sel=0 bsel=1
# wdata=xxxxxxxx factorial=         6 num=         4 aluout=        40 aluctrl= 0
# default here!! 101100
# PC=        28 rdata1=        18 rdata2=         6 Imm=         x wb_sel=01 A_sel=1 bsel=0
# wdata=00000018 factorial=         6 num=         4 aluout=        24 aluctrl= 0
# PC=        32 rdata1=         1 rdata2=         x Imm=4294967295 wb_sel=01 A_sel=1 bsel=1
# wdata=00000000 factorial=         6 num=         4 aluout=         0 aluctrl= 0
# PC=        36 rdata1=         x rdata2=         3 Imm=4294967284 wb_sel=00 A_sel=0 bsel=1
# wdata=00000028 factorial=         6 num=         4 aluout=        24 aluctrl= 0
# PC=        24 rdata1=         1 rdata2=         0 Imm=        16 wb_sel=xx A_sel=0 bsel=1
# wdata=xxxxxxxx factorial=         6 num=         4 aluout=        40 aluctrl= 0
# default here!! 101100
# PC=        28 rdata1=        24 rdata2=         6 Imm=         x wb_sel=01 A_sel=1 bsel=0
# wdata=0000001e factorial=         6 num=         4 aluout=        30 aluctrl= 0
# PC=        32 rdata1=         0 rdata2=         x Imm=4294967295 wb_sel=01 A_sel=1 bsel=1
# wdata=ffffffff factorial=         6 num=         4 aluout=4294967295 aluctrl= 0
# PC=        36 rdata1=         x rdata2=         3 Imm=4294967284 wb_sel=00 A_sel=0 bsel=1
# wdata=00000028 factorial=         6 num=         4 aluout=        24 aluctrl= 0
# PC=        24 rdata1=         0 rdata2=         0 Imm=        16 wb_sel=xx A_sel=0 bsel=1
# wdata=xxxxxxxx factorial=         6 num=         4 aluout=        40 aluctrl= 0
# PC=        40 rdata1=        24 rdata2=         0 Imm=         0 wb_sel=01 A_sel=1 bsel=1
# wdata=00000018 factorial=        24 num=         4 aluout=        24 aluctrl= 0
# PC=        44 rdata1=         0 rdata2=         0 Imm=         0 wb_sel=01 A_sel=1 bsel=1
# wdata=00000000 factorial=        24 num=         4 aluout=         0 aluctrl= 0
# PC=        48 rdata1=         5 rdata2=         2 Imm=         1 wb_sel=01 A_sel=1 bsel=1
# wdata=00000006 factorial=        24 num=         4 aluout=         6 aluctrl= 0
# PC=        52 rdata1=         x rdata2=         x Imm=4294967260 wb_sel=00 A_sel=0 bsel=1
# wdata=00000038 factorial=        24 num=         4 aluout=        16 aluctrl= 0
# PC=        16 rdata1=         4 rdata2=         5 Imm=        40 wb_sel=xx A_sel=0 bsel=1
# wdata=xxxxxxxx factorial=        24 num=         4 aluout=        56 aluctrl= 0
# PC=        56 rdata1=         0 rdata2=         0 Imm=         0 wb_sel=00 A_sel=0 bsel=1
# wdata=0000003c factorial=        24 num=         4 aluout=        56 aluctrl= 0
# PC=        56 rdata1=         0 rdata2=         0 Imm=         0 wb_sel=00 A_sel=0 bsel=1
# wdata=0000003c factorial=        24 num=         4 aluout=        56 aluctrl= 0
# PC=        56 rdata1=         0 rdata2=         0 Imm=         0 wb_sel=00 A_sel=0 bsel=1
# wdata=0000003c factorial=        24 num=         4 aluout=        56 aluctrl= 0
# PC=        56 rdata1=         0 rdata2=         0 Imm=         0 wb_sel=00 A_sel=0 bsel=1
# wdata=0000003c factorial=        24 num=         4 aluout=        56 aluctrl= 0
# PC=        56 rdata1=         0 rdata2=         0 Imm=         0 wb_sel=00 A_sel=0 bsel=1
# wdata=0000003c factorial=        24 num=         4 aluout=        56 aluctrl= 0
# PC=        56 rdata1=         0 rdata2=         0 Imm=         0 wb_sel=00 A_sel=0 bsel=1
# wdata=0000003c factorial=        24 num=         4 aluout=        56 aluctrl= 0
# PC=        56 rdata1=         0 rdata2=         0 Imm=         0 wb_sel=00 A_sel=0 bsel=1
# wdata=0000003c factorial=        24 num=         4 aluout=        56 aluctrl= 0
# PC=        56 rdata1=         0 rdata2=         0 Imm=         0 wb_sel=00 A_sel=0 bsel=1
# wdata=0000003c factorial=        24 num=         4 aluout=        56 aluctrl= 0
# PC=        56 rdata1=         0 rdata2=         0 Imm=         0 wb_sel=00 A_sel=0 bsel=1
# wdata=0000003c factorial=        24 num=         4 aluout=        56 aluctrl= 0
# PC=        56 rdata1=         0 rdata2=         0 Imm=         0 wb_sel=00 A_sel=0 bsel=1
# wdata=0000003c factorial=        24 num=         4 aluout=        56 aluctrl= 0
# PC=        56 rdata1=         0 rdata2=         0 Imm=         0 wb_sel=00 A_sel=0 bsel=1
# wdata=0000003c factorial=        24 num=         4 aluout=        56 aluctrl= 0
# PC=        56 rdata1=         0 rdata2=         0 Imm=         0 wb_sel=00 A_sel=0 bsel=1
# wdata=0000003c factorial=        24 num=         4 aluout=        56 aluctrl= 0
# PC=        56 rdata1=         0 rdata2=         0 Imm=         0 wb_sel=00 A_sel=0 bsel=1
# wdata=0000003c factorial=        24 num=         4 aluout=        56 aluctrl= 0
# PC=        56 rdata1=         0 rdata2=         0 Imm=         0 wb_sel=00 A_sel=0 bsel=1
# wdata=0000003c factorial=        24 num=         4 aluout=        56 aluctrl= 0
# PC=        56 rdata1=         0 rdata2=         0 Imm=         0 wb_sel=00 A_sel=0 bsel=1
# wdata=0000003c factorial=        24 num=         4 aluout=        56 aluctrl= 0
# PC=        56 rdata1=         0 rdata2=         0 Imm=         0 wb_sel=00 A_sel=0 bsel=1
# wdata=0000003c factorial=        24 num=         4 aluout=        56 aluctrl= 0
# PC=        56 rdata1=         0 rdata2=         0 Imm=         0 wb_sel=00 A_sel=0 bsel=1
# wdata=0000003c factorial=        24 num=         4 aluout=        56 aluctrl= 0
# PC=        56 rdata1=         0 rdata2=         0 Imm=         0 wb_sel=00 A_sel=0 bsel=1
# wdata=0000003c factorial=        24 num=         4 aluout=        56 aluctrl= 0
# PC=        56 rdata1=         0 rdata2=         0 Imm=         0 wb_sel=00 A_sel=0 bsel=1
# wdata=0000003c factorial=        24 num=         4 aluout=        56 aluctrl= 0
# PC=        56 rdata1=         0 rdata2=         0 Imm=         0 wb_sel=00 A_sel=0 bsel=1
# wdata=0000003c factorial=        24 num=         4 aluout=        56 aluctrl= 0
# PC=        56 rdata1=         0 rdata2=         0 Imm=         0 wb_sel=00 A_sel=0 bsel=1
# wdata=0000003c factorial=        24 num=         4 aluout=        56 aluctrl= 0
# PC=        56 rdata1=         0 rdata2=         0 Imm=         0 wb_sel=00 A_sel=0 bsel=1
# wdata=0000003c factorial=        24 num=         4 aluout=        56 aluctrl= 0
# PC=        56 rdata1=         0 rdata2=         0 Imm=         0 wb_sel=00 A_sel=0 bsel=1
# wdata=0000003c factorial=        24 num=         4 aluout=        56 aluctrl= 0
# PC=        56 rdata1=         0 rdata2=         0 Imm=         0 wb_sel=00 A_sel=0 bsel=1
# wdata=0000003c factorial=        24 num=         4 aluout=        56 aluctrl= 0
# PC=        56 rdata1=         0 rdata2=         0 Imm=         0 wb_sel=00 A_sel=0 bsel=1
# wdata=0000003c factorial=        24 num=         4 aluout=        56 aluctrl= 0
# PC=        56 rdata1=         0 rdata2=         0 Imm=         0 wb_sel=00 A_sel=0 bsel=1
# wdata=0000003c factorial=        24 num=         4 aluout=        56 aluctrl= 0
# PC=        56 rdata1=         0 rdata2=         0 Imm=         0 wb_sel=00 A_sel=0 bsel=1
# wdata=0000003c factorial=        24 num=         4 aluout=        56 aluctrl= 0
# PC=        56 rdata1=         0 rdata2=         0 Imm=         0 wb_sel=00 A_sel=0 bsel=1
# wdata=0000003c factorial=        24 num=         4 aluout=        56 aluctrl= 0
# PC=        56 rdata1=         0 rdata2=         0 Imm=         0 wb_sel=00 A_sel=0 bsel=1
# wdata=0000003c factorial=        24 num=         4 aluout=        56 aluctrl= 0
# PC=        56 rdata1=         0 rdata2=         0 Imm=         0 wb_sel=00 A_sel=0 bsel=1
# wdata=0000003c factorial=        24 num=         4 aluout=        56 aluctrl= 0
# PC=        56 rdata1=         0 rdata2=         0 Imm=         0 wb_sel=00 A_sel=0 bsel=1
# wdata=0000003c factorial=        24 num=         4 aluout=        56 aluctrl= 0
# PC=        56 rdata1=         0 rdata2=         0 Imm=         0 wb_sel=00 A_sel=0 bsel=1
# wdata=0000003c factorial=        24 num=         4 aluout=        56 aluctrl= 0
# PC=        56 rdata1=         0 rdata2=         0 Imm=         0 wb_sel=00 A_sel=0 bsel=1
# wdata=0000003c factorial=        24 num=         4 aluout=        56 aluctrl= 0
# PC=        56 rdata1=         0 rdata2=         0 Imm=         0 wb_sel=00 A_sel=0 bsel=1
# wdata=0000003c factorial=        24 num=         4 aluout=        56 aluctrl= 0
# PC=        56 rdata1=         0 rdata2=         0 Imm=         0 wb_sel=00 A_sel=0 bsel=1
# wdata=0000003c factorial=        24 num=         4 aluout=        56 aluctrl= 0
# PC=        56 rdata1=         0 rdata2=         0 Imm=         0 wb_sel=00 A_sel=0 bsel=1
# wdata=0000003c factorial=        24 num=         4 aluout=        56 aluctrl= 0
# PC=        56 rdata1=         0 rdata2=         0 Imm=         0 wb_sel=00 A_sel=0 bsel=1
# wdata=0000003c factorial=        24 num=         4 aluout=        56 aluctrl= 0
# PC=        56 rdata1=         0 rdata2=         0 Imm=         0 wb_sel=00 A_sel=0 bsel=1
# wdata=0000003c factorial=        24 num=         4 aluout=        56 aluctrl= 0
# ** Note: $finish    : d:/Study/6th semester/Computer Architecture/Lab6/RISC_V_tb.sv(26)
#    Time: 201 ns  Iteration: 1  Instance: /RISC_V_tb
# End time: 01:37:52 on Mar 30,2023, Elapsed time: 0:00:02
# Errors: 0, Warnings: 0
